{
	"id": "547d4541-8fbb-4bf1-b1c3-d449e8447bbc",
	"name": "API_Project_Environment",
	"values": [
		{
			"key": "Base_URL",
			"value": "https://jsonplaceholder.typicode.com",
			"type": "default",
			"enabled": true
		}
	],
	"_postman_variable_scope": "environment",
	"_postman_exported_at": "2023-10-26T16:43:28.979Z",
	"_postman_exported_using": "Postman/10.19.9"
}